%YAML 1.1
%TAG !u! tag:unity3d.com,2011:
--- !u!21 &2100000
Material:
  serializedVersion: 6
  m_ObjectHideFlags: 0
  m_CorrespondingSourceObject: {fileID: 0}
  m_PrefabInstance: {fileID: 0}
  m_PrefabAsset: {fileID: 0}
  m_Name: meshMaterialPass0
  m_Shader: {fileID: 4800000, guid: 76b3a291c7a044bc8f04f4cb1a5771e6, type: 3}
  m_ShaderKeywords: 
  m_LightmapFlags: 4
  m_EnableInstancingVariants: 0
  m_DoubleSidedGI: 0
  m_CustomRenderQueue: -1
  stringTagMap: {}
  disabledShaderPasses: []
  m_SavedProperties:
    serializedVersion: 3
    m_TexEnvs:
    - _MainTex:
        m_Texture: {fileID: 0}
        m_Scale: {x: 1, y: 1}
        m_Offset: {x: 0, y: 0}
    - _Normal0:
        m_Texture: {fileID: 0}
        m_Scale: {x: 1, y: 1}
        m_Offset: {x: 0, y: 0}
    - _Normal1:
        m_Texture: {fileID: 2800000, guid: 8b589c0aa03487043aabae92daac584a, type: 3}
        m_Scale: {x: 1, y: 1}
        m_Offset: {x: 0, y: 0}
    - _Normal2:
        m_Texture: {fileID: 0}
        m_Scale: {x: 1, y: 1}
        m_Offset: {x: 0, y: 0}
    - _Normal3:
        m_Texture: {fileID: 0}
        m_Scale: {x: 1, y: 1}
        m_Offset: {x: 0, y: 0}
    - _Splat0:
        m_Texture: {fileID: 2800000, guid: 696d2e5cb6a1f814f876ea4be4ae9141, type: 3}
        m_Scale: {x: 1, y: 1}
        m_Offset: {x: 0, y: 0}
    - _Splat1:
        m_Texture: {fileID: 2800000, guid: b05bb9ac27530194f9ce4086ccac645c, type: 3}
        m_Scale: {x: 1, y: 1}
        m_Offset: {x: 0, y: 0}
    - _Splat2:
        m_Texture: {fileID: 2800000, guid: b64756a3fbf7f7e42b02aa3aa8669374, type: 3}
        m_Scale: {x: 1, y: 1}
        m_Offset: {x: 0, y: 0}
    - _Splat3:
        m_Texture: {fileID: 0}
        m_Scale: {x: 1, y: 1}
        m_Offset: {x: 0, y: 0}
    m_Floats:
    - _Metallic0: 0
    - _Metallic1: 1
    - _Metallic2: 0
    - _Metallic3: 0
    - _Smoothness0: 0
    - _Smoothness1: 0
    - _Smoothness2: 0
    - _Smoothness3: 0
    - _normalScale0: 1
    - _normalScale1: 1
    - _normalScale2: 1
    - _normalScale3: 1
    - _offset0x: 0
    - _offset0y: 0
    - _offset1x: 0
    - _offset1y: 0
    - _offset2x: 0
    - _offset2y: 0
    - _offset3x: 0
    - _offset3y: 0
    - _tiles0x: 0.06666667
    - _tiles0y: 0.06666667
    - _tiles1x: 0.2
    - _tiles1y: 0.2
    - _tiles2x: 0.5
    - _tiles2y: 0.5
    - _tiles3x: 0.03
    - _tiles3y: 0.03
    m_Colors:
    - _Color: {r: 1, g: 1, b: 1, a: 1}
